<svg version="1.1" xmlns="http://www.w3.org/2000/svg" xmlns:xlink="http://www.w3.org/1999/xlink" x="0px" y="0px"
	 viewBox="0 0 62.8 63.2" style="enable-background:new 0 0 62.8 63.2;" xml:space="preserve">
<g>
	<g>
		<path class="icon-design" fill="#1D1D1B" d="M22.7,42c-1.3-5.2,2.6-8.9,2.6-8.9C21.6,44.1,30,47.7,30,47.7S24.3,48.4,22.7,42z"/>
	</g>
	<path class="icon-design" fill="none" stroke="#1D1D1B" stroke-miterlimit="10" d="M43.9,36.8c-1-17.4-16.1-27.2-16.1-27.2c0,0.2,0.1,0.4,0.1,0.6c0.4,1.7,1.2,6-1.3,12.6
		c-1.1,2.9-3.5,6.7-5.8,10.2l0,0c-1.4,2.3-2.3,4.9-1.9,7.8c0.6,6.6,6.6,11.5,13.2,10.9S44.4,45.2,43.9,36.8z"/>
</g>
</svg>
