<svg version="1.1" xmlns="http://www.w3.org/2000/svg" xmlns:xlink="http://www.w3.org/1999/xlink" x="0px" y="0px"
	 viewBox="0 0 62.794 63.234" enable-background="new 0 0 62.794 63.234" xml:space="preserve">
<path fill="none" stroke="#414042" stroke-width="2" stroke-miterlimit="10" d="M77.575,12.97"/>
<ellipse fill="#434343" cx="31.4" cy="31.628" rx="5.154" ry="5.195"/>
<ellipse fill="none" stroke="#434343" stroke-width="1.1242" stroke-miterlimit="10" cx="31.525" cy="31.617" rx="9.862" ry="30.883"/>
<ellipse transform="matrix(0.8414 -0.5404 0.5404 0.8414 -12.0583 22.1348)" fill="none" stroke="#434343" stroke-width="1.1704" stroke-miterlimit="10" cx="31.684" cy="31.612" rx="33.702" ry="9.796"/>
<ellipse transform="matrix(0.5404 -0.8414 0.8414 0.5404 -11.9715 41.2237)" fill="none" stroke="#434343" stroke-width="1.1704" stroke-miterlimit="10" cx="31.749" cy="31.57" rx="9.796" ry="33.702"/>
</svg>
